C:\USERS\LENOVO\DESKTOP\ALLDETECTOR\ALLDETECTOR\RELEASE\ALLDETECTOR.PCH
C:\USERS\LENOVO\DESKTOP\ALLDETECTOR\ALLDETECTOR\RELEASE\STDAFX.OBJ
C:\USERS\LENOVO\DESKTOP\ALLDETECTOR\ALLDETECTOR\RELEASE\VC100.PDB
C:\USERS\LENOVO\DESKTOP\ALLDETECTOR\ALLDETECTOR\RELEASE\CP_SEG.OBJ
C:\USERS\LENOVO\DESKTOP\ALLDETECTOR\ALLDETECTOR\RELEASE\CPFILESLISTVIEW.OBJ
C:\USERS\LENOVO\DESKTOP\ALLDETECTOR\ALLDETECTOR\RELEASE\CONVER_BUG_FILE.OBJ
C:\USERS\LENOVO\DESKTOP\ALLDETECTOR\ALLDETECTOR\RELEASE\CODEGRAPHDLG.OBJ
C:\USERS\LENOVO\DESKTOP\ALLDETECTOR\ALLDETECTOR\RELEASE\CNTXTINCONSISDETECT.OBJ
C:\USERS\LENOVO\DESKTOP\ALLDETECTOR\ALLDETECTOR\RELEASE\CLONETREECTRL.OBJ
C:\USERS\LENOVO\DESKTOP\ALLDETECTOR\ALLDETECTOR\RELEASE\CLONECODEVIEW.OBJ
C:\USERS\LENOVO\DESKTOP\ALLDETECTOR\ALLDETECTOR\RELEASE\CLASSVIEW.OBJ
C:\USERS\LENOVO\DESKTOP\ALLDETECTOR\ALLDETECTOR\RELEASE\CHILDFRM.OBJ
C:\USERS\LENOVO\DESKTOP\ALLDETECTOR\ALLDETECTOR\RELEASE\CFILEVIEW.OBJ
C:\USERS\LENOVO\DESKTOP\ALLDETECTOR\ALLDETECTOR\RELEASE\CCSEGRATIODLG.OBJ
C:\USERS\LENOVO\DESKTOP\ALLDETECTOR\ALLDETECTOR\RELEASE\CCSEGFILEDLG.OBJ
C:\USERS\LENOVO\DESKTOP\ALLDETECTOR\ALLDETECTOR\RELEASE\CCLINESFILEDLG.OBJ
C:\USERS\LENOVO\DESKTOP\ALLDETECTOR\ALLDETECTOR\RELEASE\BUG_LIST.OBJ
C:\USERS\LENOVO\DESKTOP\ALLDETECTOR\ALLDETECTOR\RELEASE\BETWEENESSCENTRALITYDLG.OBJ
C:\USERS\LENOVO\DESKTOP\ALLDETECTOR\ALLDETECTOR\RELEASE\BETWEENESSCENTRALITYALGORITHM.OBJ
C:\USERS\LENOVO\DESKTOP\ALLDETECTOR\ALLDETECTOR\RELEASE\ASSIGNMENTUNIT.OBJ
C:\USERS\LENOVO\DESKTOP\ALLDETECTOR\ALLDETECTOR\RELEASE\ALLDETECTORVIEW.OBJ
C:\USERS\LENOVO\DESKTOP\ALLDETECTOR\ALLDETECTOR\RELEASE\ALLDETECTORDOC.OBJ
C:\USERS\LENOVO\DESKTOP\ALLDETECTOR\ALLDETECTOR\RELEASE\ALLDETECTOR.OBJ
C:\USERS\LENOVO\DESKTOP\ALLDETECTOR\ALLDETECTOR\RELEASE\LEXICAL_ADDH.OBJ
C:\USERS\LENOVO\DESKTOP\ALLDETECTOR\ALLDETECTOR\RELEASE\LEXICAL.OBJ
C:\USERS\LENOVO\DESKTOP\ALLDETECTOR\ALLDETECTOR\RELEASE\LATT_NODE.OBJ
C:\USERS\LENOVO\DESKTOP\ALLDETECTOR\ALLDETECTOR\RELEASE\ITERATIONUNIT.OBJ
C:\USERS\LENOVO\DESKTOP\ALLDETECTOR\ALLDETECTOR\RELEASE\IDLOCSETMEM.OBJ
C:\USERS\LENOVO\DESKTOP\ALLDETECTOR\ALLDETECTOR\RELEASE\HEADERFILEELEM.OBJ
C:\USERS\LENOVO\DESKTOP\ALLDETECTOR\ALLDETECTOR\RELEASE\FUNCBNDBUILD.OBJ
C:\USERS\LENOVO\DESKTOP\ALLDETECTOR\ALLDETECTOR\RELEASE\FORMATTOKENLINES.OBJ
C:\USERS\LENOVO\DESKTOP\ALLDETECTOR\ALLDETECTOR\RELEASE\FNODE.OBJ
C:\USERS\LENOVO\DESKTOP\ALLDETECTOR\ALLDETECTOR\RELEASE\FILEVIEW.OBJ
C:\USERS\LENOVO\DESKTOP\ALLDETECTOR\ALLDETECTOR\RELEASE\FILESTOTOKENS.OBJ
C:\USERS\LENOVO\DESKTOP\ALLDETECTOR\ALLDETECTOR\RELEASE\FILEOUTROOTDLG.OBJ
C:\USERS\LENOVO\DESKTOP\ALLDETECTOR\ALLDETECTOR\RELEASE\FILENAME.OBJ
C:\USERS\LENOVO\DESKTOP\ALLDETECTOR\ALLDETECTOR\RELEASE\FILEINCLUDEDLG.OBJ
C:\USERS\LENOVO\DESKTOP\ALLDETECTOR\ALLDETECTOR\RELEASE\EXPRESSION.OBJ
C:\USERS\LENOVO\DESKTOP\ALLDETECTOR\ALLDETECTOR\RELEASE\EXPMATCHVECTORELM.OBJ
C:\USERS\LENOVO\DESKTOP\ALLDETECTOR\ALLDETECTOR\RELEASE\DETECT_ROUTINE.OBJ
C:\USERS\LENOVO\DESKTOP\ALLDETECTOR\ALLDETECTOR\RELEASE\DATASTRUCT.OBJ
C:\USERS\LENOVO\DESKTOP\ALLDETECTOR\ALLDETECTOR\RELEASE\CUSTOMPARAMDLG.OBJ
C:\USERS\LENOVO\DESKTOP\ALLDETECTOR\ALLDETECTOR\RELEASE\CP_SEGMENT.OBJ
C:\USERS\LENOVO\DESKTOP\ALLDETECTOR\ALLDETECTOR\RELEASE\ROUTINE.OBJ
C:\USERS\LENOVO\DESKTOP\ALLDETECTOR\ALLDETECTOR\RELEASE\REMOVEINVOCATION.OBJ
C:\USERS\LENOVO\DESKTOP\ALLDETECTOR\ALLDETECTOR\RELEASE\RC_TYPE_TCHART.OBJ
C:\USERS\LENOVO\DESKTOP\ALLDETECTOR\ALLDETECTOR\RELEASE\RCTYPERATIOCHARTDLG.OBJ
C:\USERS\LENOVO\DESKTOP\ALLDETECTOR\ALLDETECTOR\RELEASE\RCTYPEDIAGRAMDLG.OBJ
C:\USERS\LENOVO\DESKTOP\ALLDETECTOR\ALLDETECTOR\RELEASE\RCLISTWND.OBJ
C:\USERS\LENOVO\DESKTOP\ALLDETECTOR\ALLDETECTOR\RELEASE\RCLISTCTRL.OBJ
C:\USERS\LENOVO\DESKTOP\ALLDETECTOR\ALLDETECTOR\RELEASE\RCFILESDIAGRAMDLG.OBJ
C:\USERS\LENOVO\DESKTOP\ALLDETECTOR\ALLDETECTOR\RELEASE\RCFILESCOLUMNDLG.OBJ
C:\USERS\LENOVO\DESKTOP\ALLDETECTOR\ALLDETECTOR\RELEASE\RCBUGFORMDLG.OBJ
C:\USERS\LENOVO\DESKTOP\ALLDETECTOR\ALLDETECTOR\RELEASE\PROPERTIESWND.OBJ
C:\USERS\LENOVO\DESKTOP\ALLDETECTOR\ALLDETECTOR\RELEASE\PROGRAMMATCH.OBJ
C:\USERS\LENOVO\DESKTOP\ALLDETECTOR\ALLDETECTOR\RELEASE\POINTERANALYSIS.OBJ
C:\USERS\LENOVO\DESKTOP\ALLDETECTOR\ALLDETECTOR\RELEASE\OUT_TOKENSEQ.OBJ
C:\USERS\LENOVO\DESKTOP\ALLDETECTOR\ALLDETECTOR\RELEASE\OUT_CPPOS.OBJ
C:\USERS\LENOVO\DESKTOP\ALLDETECTOR\ALLDETECTOR\RELEASE\OUTPUTWND.OBJ
C:\USERS\LENOVO\DESKTOP\ALLDETECTOR\ALLDETECTOR\RELEASE\MYSCIEDITVIEW.OBJ
C:\USERS\LENOVO\DESKTOP\ALLDETECTOR\ALLDETECTOR\RELEASE\MOVABLEBUTTON.OBJ
C:\USERS\LENOVO\DESKTOP\ALLDETECTOR\ALLDETECTOR\RELEASE\MAINFRM.OBJ
C:\USERS\LENOVO\DESKTOP\ALLDETECTOR\ALLDETECTOR\RELEASE\LEXICAL_TOKEN.OBJ
C:\USERS\LENOVO\DESKTOP\ALLDETECTOR\ALLDETECTOR\RELEASE\SELECTIONUNIT.OBJ
C:\USERS\LENOVO\DESKTOP\ALLDETECTOR\ALLDETECTOR\RELEASE\SDGWHILE.OBJ
C:\USERS\LENOVO\DESKTOP\ALLDETECTOR\ALLDETECTOR\RELEASE\SDGSWITCH.OBJ
C:\USERS\LENOVO\DESKTOP\ALLDETECTOR\ALLDETECTOR\RELEASE\SDGRETURN.OBJ
C:\USERS\LENOVO\DESKTOP\ALLDETECTOR\ALLDETECTOR\RELEASE\SDGINCDEC.OBJ
C:\USERS\LENOVO\DESKTOP\ALLDETECTOR\ALLDETECTOR\RELEASE\SDGIF.OBJ
C:\USERS\LENOVO\DESKTOP\ALLDETECTOR\ALLDETECTOR\RELEASE\SDGGOTO.OBJ
C:\USERS\LENOVO\DESKTOP\ALLDETECTOR\ALLDETECTOR\RELEASE\SDGFOR.OBJ
C:\USERS\LENOVO\DESKTOP\ALLDETECTOR\ALLDETECTOR\RELEASE\SDGENTRY.OBJ
C:\USERS\LENOVO\DESKTOP\ALLDETECTOR\ALLDETECTOR\RELEASE\SDGDOWHILE.OBJ
C:\USERS\LENOVO\DESKTOP\ALLDETECTOR\ALLDETECTOR\RELEASE\SDGDECLARE.OBJ
C:\USERS\LENOVO\DESKTOP\ALLDETECTOR\ALLDETECTOR\RELEASE\SDGCONTINUE.OBJ
C:\USERS\LENOVO\DESKTOP\ALLDETECTOR\ALLDETECTOR\RELEASE\SDGCALL.OBJ
C:\USERS\LENOVO\DESKTOP\ALLDETECTOR\ALLDETECTOR\RELEASE\SDGBREAK.OBJ
C:\USERS\LENOVO\DESKTOP\ALLDETECTOR\ALLDETECTOR\RELEASE\SDGBASE.OBJ
C:\USERS\LENOVO\DESKTOP\ALLDETECTOR\ALLDETECTOR\RELEASE\SDGASSIGNMENT.OBJ
C:\USERS\LENOVO\DESKTOP\ALLDETECTOR\ALLDETECTOR\RELEASE\SDG.OBJ
C:\USERS\LENOVO\DESKTOP\ALLDETECTOR\ALLDETECTOR\RELEASE\SCINTILLAWND.OBJ
C:\USERS\LENOVO\DESKTOP\ALLDETECTOR\ALLDETECTOR\RELEASE\SCIEDITVIEW.OBJ
C:\USERS\LENOVO\DESKTOP\ALLDETECTOR\ALLDETECTOR\RELEASE\SAVECPOUTDLG.OBJ
C:\USERS\LENOVO\DESKTOP\ALLDETECTOR\ALLDETECTOR\RELEASE\VIEWTREE.OBJ
C:\USERS\LENOVO\DESKTOP\ALLDETECTOR\ALLDETECTOR\RELEASE\VARREMOVE.OBJ
C:\USERS\LENOVO\DESKTOP\ALLDETECTOR\ALLDETECTOR\RELEASE\UNIT.OBJ
C:\USERS\LENOVO\DESKTOP\ALLDETECTOR\ALLDETECTOR\RELEASE\TYPEDEFRECORDELEM.OBJ
C:\USERS\LENOVO\DESKTOP\ALLDETECTOR\ALLDETECTOR\RELEASE\TOKENLINE.OBJ
C:\USERS\LENOVO\DESKTOP\ALLDETECTOR\ALLDETECTOR\RELEASE\TOKENEDFILE.OBJ
C:\USERS\LENOVO\DESKTOP\ALLDETECTOR\ALLDETECTOR\RELEASE\TNODE.OBJ
C:\USERS\LENOVO\DESKTOP\ALLDETECTOR\ALLDETECTOR\RELEASE\SNODE.OBJ
C:\USERS\LENOVO\DESKTOP\ALLDETECTOR\ALLDETECTOR\RELEASE\SETMINLINEDLG.OBJ
C:\USERS\LENOVO\DESKTOP\ALLDETECTOR\ALLDETECTOR\RELEASE\SEQ_MINING.OBJ
C:\USERS\LENOVO\DESKTOP\ALLDETECTOR\ALLDETECTOR\RELEASE\SEQNODE.OBJ
C:\USERS\LENOVO\DESKTOP\ALLDETECTOR\RELEASE\ALLDETECTOR.EXE
C:\USERS\LENOVO\DESKTOP\ALLDETECTOR\ALLDETECTOR\RELEASE\ALLDETECTOR.EXE.INTERMEDIATE.MANIFEST
C:\USERS\LENOVO\DESKTOP\ALLDETECTOR\RELEASE\ALLDETECTOR.PDB
C:\USERS\LENOVO\DESKTOP\ALLDETECTOR\ALLDETECTOR\RELEASE\ALLDETECTOR.RES
C:\Users\10498\Desktop\AllDetector\AllDetector\Release\AllDetector.obj
C:\Users\10498\Desktop\AllDetector\AllDetector\Release\AllDetectorDoc.obj
C:\Users\10498\Desktop\AllDetector\AllDetector\Release\AllDetectorView.obj
C:\Users\10498\Desktop\AllDetector\AllDetector\Release\AssignmentUnit.obj
C:\Users\10498\Desktop\AllDetector\AllDetector\Release\BetweenessCentralityAlgorithm.obj
C:\Users\10498\Desktop\AllDetector\AllDetector\Release\BetweenessCentralityDlg.obj
C:\Users\10498\Desktop\AllDetector\AllDetector\Release\bug_list.obj
C:\Users\10498\Desktop\AllDetector\AllDetector\Release\CCLinesFileDlg.obj
C:\Users\10498\Desktop\AllDetector\AllDetector\Release\CCSegFileDlg.obj
C:\Users\10498\Desktop\AllDetector\AllDetector\Release\CCSegRatioDlg.obj
C:\Users\10498\Desktop\AllDetector\AllDetector\Release\CFileView.obj
C:\Users\10498\Desktop\AllDetector\AllDetector\Release\ChildFrm.obj
C:\Users\10498\Desktop\AllDetector\AllDetector\Release\ClassView.obj
C:\Users\10498\Desktop\AllDetector\AllDetector\Release\CloneCodeView.obj
C:\Users\10498\Desktop\AllDetector\AllDetector\Release\CloneTreeCtrl.obj
C:\Users\10498\Desktop\AllDetector\AllDetector\Release\CntxtInconsisDetect.obj
C:\Users\10498\Desktop\AllDetector\AllDetector\Release\CodeGraphDlg.obj
C:\Users\10498\Desktop\AllDetector\AllDetector\Release\conver_bug_file.obj
C:\Users\10498\Desktop\AllDetector\AllDetector\Release\CPFilesListView.obj
C:\Users\10498\Desktop\AllDetector\AllDetector\Release\CP_SEG.obj
C:\Users\10498\Desktop\AllDetector\AllDetector\Release\CP_Segment.obj
C:\Users\10498\Desktop\AllDetector\AllDetector\Release\CustomParamDlg.obj
C:\Users\10498\Desktop\AllDetector\AllDetector\Release\dataStruct.obj
C:\Users\10498\Desktop\AllDetector\AllDetector\Release\detect_routine.obj
C:\Users\10498\Desktop\AllDetector\AllDetector\Release\ExpMatchVectorElm.obj
C:\Users\10498\Desktop\AllDetector\AllDetector\Release\Expression.obj
C:\Users\10498\Desktop\AllDetector\AllDetector\Release\FileIncludeDlg.obj
C:\Users\10498\Desktop\AllDetector\AllDetector\Release\filename.obj
C:\Users\10498\Desktop\AllDetector\AllDetector\Release\FileOutRootDlg.obj
C:\Users\10498\Desktop\AllDetector\AllDetector\Release\FilesToTokens.obj
C:\Users\10498\Desktop\AllDetector\AllDetector\Release\FileView.obj
C:\Users\10498\Desktop\AllDetector\AllDetector\Release\FNODE.obj
C:\Users\10498\Desktop\AllDetector\AllDetector\Release\FormatTokenLines.obj
C:\Users\10498\Desktop\AllDetector\AllDetector\Release\FuncBndBuild.obj
C:\Users\10498\Desktop\AllDetector\AllDetector\Release\HeaderFileElem.obj
C:\Users\10498\Desktop\AllDetector\AllDetector\Release\IdLocSetMem.obj
C:\Users\10498\Desktop\AllDetector\AllDetector\Release\IterationUnit.obj
C:\Users\10498\Desktop\AllDetector\AllDetector\Release\Latt_Node.obj
C:\Users\10498\Desktop\AllDetector\AllDetector\Release\Lexical.obj
C:\Users\10498\Desktop\AllDetector\AllDetector\Release\Lexical_Addh.obj
C:\Users\10498\Desktop\AllDetector\AllDetector\Release\Lexical_token.obj
C:\Users\10498\Desktop\AllDetector\AllDetector\Release\MainFrm.obj
C:\Users\10498\Desktop\AllDetector\AllDetector\Release\MovableButton.obj
C:\Users\10498\Desktop\AllDetector\AllDetector\Release\MySciEditView.obj
C:\Users\10498\Desktop\AllDetector\AllDetector\Release\OutputWnd.obj
C:\Users\10498\Desktop\AllDetector\AllDetector\Release\Out_CpPos.obj
C:\Users\10498\Desktop\AllDetector\AllDetector\Release\Out_TokenSeq.obj
C:\Users\10498\Desktop\AllDetector\AllDetector\Release\PointerAnalysis.obj
C:\Users\10498\Desktop\AllDetector\AllDetector\Release\ProgramMatch.obj
C:\Users\10498\Desktop\AllDetector\AllDetector\Release\PropertiesWnd.obj
C:\Users\10498\Desktop\AllDetector\AllDetector\Release\RCBugFormDlg.obj
C:\Users\10498\Desktop\AllDetector\AllDetector\Release\RCFilesColumnDlg.obj
C:\Users\10498\Desktop\AllDetector\AllDetector\Release\RCFilesDiagramDlg.obj
C:\Users\10498\Desktop\AllDetector\AllDetector\Release\RCListCtrl.obj
C:\Users\10498\Desktop\AllDetector\AllDetector\Release\RCListWnd.obj
C:\Users\10498\Desktop\AllDetector\AllDetector\Release\RCTypeDiagramDlg.obj
C:\Users\10498\Desktop\AllDetector\AllDetector\Release\RCTypeRatioChartDlg.obj
C:\Users\10498\Desktop\AllDetector\AllDetector\Release\rc_type_tchart.obj
C:\Users\10498\Desktop\AllDetector\AllDetector\Release\RemoveInvocation.obj
C:\Users\10498\Desktop\AllDetector\AllDetector\Release\routine.obj
C:\Users\10498\Desktop\AllDetector\AllDetector\Release\SaveCPOUTDlg.obj
C:\Users\10498\Desktop\AllDetector\AllDetector\Release\SciEditView.obj
C:\Users\10498\Desktop\AllDetector\AllDetector\Release\ScintillaWnd.obj
C:\Users\10498\Desktop\AllDetector\AllDetector\Release\SDG.obj
C:\Users\10498\Desktop\AllDetector\AllDetector\Release\SDGAssignment.obj
C:\Users\10498\Desktop\AllDetector\AllDetector\Release\SDGBase.obj
C:\Users\10498\Desktop\AllDetector\AllDetector\Release\SDGBreak.obj
C:\Users\10498\Desktop\AllDetector\AllDetector\Release\SDGCall.obj
C:\Users\10498\Desktop\AllDetector\AllDetector\Release\SDGContinue.obj
C:\Users\10498\Desktop\AllDetector\AllDetector\Release\SDGDeclare.obj
C:\Users\10498\Desktop\AllDetector\AllDetector\Release\SDGDoWhile.obj
C:\Users\10498\Desktop\AllDetector\AllDetector\Release\SDGEntry.obj
C:\Users\10498\Desktop\AllDetector\AllDetector\Release\SDGFor.obj
C:\Users\10498\Desktop\AllDetector\AllDetector\Release\SDGGoTo.obj
C:\Users\10498\Desktop\AllDetector\AllDetector\Release\SDGIf.obj
C:\Users\10498\Desktop\AllDetector\AllDetector\Release\SDGIncDec.obj
C:\Users\10498\Desktop\AllDetector\AllDetector\Release\SDGReturn.obj
C:\Users\10498\Desktop\AllDetector\AllDetector\Release\SDGSwitch.obj
C:\Users\10498\Desktop\AllDetector\AllDetector\Release\SDGWhile.obj
C:\Users\10498\Desktop\AllDetector\AllDetector\Release\SelectionUnit.obj
C:\Users\10498\Desktop\AllDetector\AllDetector\Release\SeqNode.obj
C:\Users\10498\Desktop\AllDetector\AllDetector\Release\Seq_Mining.obj
C:\Users\10498\Desktop\AllDetector\AllDetector\Release\SetMinlineDlg.obj
C:\Users\10498\Desktop\AllDetector\AllDetector\Release\SNODE.obj
C:\Users\10498\Desktop\AllDetector\AllDetector\Release\stdafx.obj
C:\Users\10498\Desktop\AllDetector\AllDetector\Release\TNODE.obj
C:\Users\10498\Desktop\AllDetector\AllDetector\Release\TokenedFile.obj
C:\Users\10498\Desktop\AllDetector\AllDetector\Release\TokenLine.obj
C:\Users\10498\Desktop\AllDetector\AllDetector\Release\TypedefRecordElem.obj
C:\Users\10498\Desktop\AllDetector\AllDetector\Release\Unit.obj
C:\Users\10498\Desktop\AllDetector\AllDetector\Release\VarRemove.obj
C:\Users\10498\Desktop\AllDetector\AllDetector\Release\ViewTree.obj
C:\Users\10498\Desktop\AllDetector\AllDetector\Release\teechart5.tli
C:\Users\10498\Desktop\AllDetector\AllDetector\Release\teechart5.tlh
C:\Users\10498\Desktop\AllDetector\AllDetector\Release\AllDetector.write.1.tlog
C:\Users\10498\Desktop\AllDetector\AllDetector\Release\cl.command.1.tlog
C:\Users\10498\Desktop\AllDetector\AllDetector\Release\CL.read.1.tlog
C:\Users\10498\Desktop\AllDetector\AllDetector\Release\CL.write.1.tlog
C:\Users\10498\Desktop\AllDetector\AllDetector\Release\link-cvtres.read.1.tlog
C:\Users\10498\Desktop\AllDetector\AllDetector\Release\link-cvtres.write.1.tlog
C:\Users\10498\Desktop\AllDetector\AllDetector\Release\link.command.1.tlog
C:\Users\10498\Desktop\AllDetector\AllDetector\Release\link.read.1.tlog
C:\Users\10498\Desktop\AllDetector\AllDetector\Release\link.write.1.tlog
C:\Users\10498\Desktop\AllDetector\AllDetector\Release\mt.command.1.tlog
C:\Users\10498\Desktop\AllDetector\AllDetector\Release\mt.read.1.tlog
C:\Users\10498\Desktop\AllDetector\AllDetector\Release\mt.write.1.tlog
C:\Users\10498\Desktop\AllDetector\AllDetector\Release\rc.command.1.tlog
C:\Users\10498\Desktop\AllDetector\AllDetector\Release\rc.read.1.tlog
C:\Users\10498\Desktop\AllDetector\AllDetector\Release\rc.write.1.tlog
C:\Users\10498\Desktop\AllDetector\AllDetector\Release\AllDetector.exe.intermediate.manifest
C:\Users\10498\Desktop\AllDetector\AllDetector\Release\AllDetector.res
C:\Users\10498\Desktop\AllDetector\AllDetector\Release\AllDetector.pch
C:\Users\10498\Desktop\AllDetector\AllDetector\Release\vc100.pdb
C:\Users\10498\Desktop\AllDetector\Release\AllDetector.pdb
C:\Users\10498\Desktop\AllDetector\Release\AllDetector.exe
