^C:\USERS\THINK\DESKTOP\ALLDETECTOR\ALLDETECTOR\STDAFX.CPP
/c /ZI /nologo /W3 /WX- /Od /Oy- /D WIN32 /D _WINDOWS /D _DEBUG /D _MBCS /D _AFXDLL /Gm /EHsc /RTC1 /MDd /GS /fp:precise /Zc:wchar_t /Zc:forScope /Yc"StdAfx.h" /Fp"Debug\AllDetector.pch" /Fo"Debug\\" /Fd"Debug\vc100.pdb" /Gd /TP /analyze- /errorReport:prompt C:\USERS\THINK\DESKTOP\ALLDETECTOR\ALLDETECTOR\STDAFX.CPP
^C:\USERS\THINK\DESKTOP\ALLDETECTOR\ALLDETECTOR\ALLDETECTOR.CPP
/c /ZI /nologo /W3 /WX- /Od /Oy- /D WIN32 /D _WINDOWS /D _DEBUG /D _MBCS /D _AFXDLL /Gm /EHsc /RTC1 /MDd /GS /fp:precise /Zc:wchar_t /Zc:forScope /Yu"StdAfx.h" /Fp"Debug\AllDetector.pch" /Fo"Debug\\" /Fd"Debug\vc100.pdb" /Gd /TP /analyze- /errorReport:prompt C:\USERS\THINK\DESKTOP\ALLDETECTOR\ALLDETECTOR\ALLDETECTOR.CPP
^C:\USERS\THINK\DESKTOP\ALLDETECTOR\ALLDETECTOR\ALLDETECTORDOC.CPP
/c /ZI /nologo /W3 /WX- /Od /Oy- /D WIN32 /D _WINDOWS /D _DEBUG /D _MBCS /D _AFXDLL /Gm /EHsc /RTC1 /MDd /GS /fp:precise /Zc:wchar_t /Zc:forScope /Yu"StdAfx.h" /Fp"Debug\AllDetector.pch" /Fo"Debug\\" /Fd"Debug\vc100.pdb" /Gd /TP /analyze- /errorReport:prompt C:\USERS\THINK\DESKTOP\ALLDETECTOR\ALLDETECTOR\ALLDETECTORDOC.CPP
^C:\USERS\THINK\DESKTOP\ALLDETECTOR\ALLDETECTOR\ALLDETECTORVIEW.CPP
/c /ZI /nologo /W3 /WX- /Od /Oy- /D WIN32 /D _WINDOWS /D _DEBUG /D _MBCS /D _AFXDLL /Gm /EHsc /RTC1 /MDd /GS /fp:precise /Zc:wchar_t /Zc:forScope /Yu"StdAfx.h" /Fp"Debug\AllDetector.pch" /Fo"Debug\\" /Fd"Debug\vc100.pdb" /Gd /TP /analyze- /errorReport:prompt C:\USERS\THINK\DESKTOP\ALLDETECTOR\ALLDETECTOR\ALLDETECTORVIEW.CPP
^C:\USERS\THINK\DESKTOP\ALLDETECTOR\ALLDETECTOR\CHILDFRM.CPP
/c /ZI /nologo /W3 /WX- /Od /Oy- /D WIN32 /D _WINDOWS /D _DEBUG /D _MBCS /D _AFXDLL /Gm /EHsc /RTC1 /MDd /GS /fp:precise /Zc:wchar_t /Zc:forScope /Yu"StdAfx.h" /Fp"Debug\AllDetector.pch" /Fo"Debug\\" /Fd"Debug\vc100.pdb" /Gd /TP /analyze- /errorReport:prompt C:\USERS\THINK\DESKTOP\ALLDETECTOR\ALLDETECTOR\CHILDFRM.CPP
^C:\USERS\THINK\DESKTOP\ALLDETECTOR\ALLDETECTOR\CLASSVIEW.CPP
/c /ZI /nologo /W3 /WX- /Od /Oy- /D WIN32 /D _WINDOWS /D _DEBUG /D _MBCS /D _AFXDLL /Gm /EHsc /RTC1 /MDd /GS /fp:precise /Zc:wchar_t /Zc:forScope /Yu"StdAfx.h" /Fp"Debug\AllDetector.pch" /Fo"Debug\\" /Fd"Debug\vc100.pdb" /Gd /TP /analyze- /errorReport:prompt C:\USERS\THINK\DESKTOP\ALLDETECTOR\ALLDETECTOR\CLASSVIEW.CPP
^C:\USERS\THINK\DESKTOP\ALLDETECTOR\ALLDETECTOR\FILEVIEW.CPP
/c /ZI /nologo /W3 /WX- /Od /Oy- /D WIN32 /D _WINDOWS /D _DEBUG /D _MBCS /D _AFXDLL /Gm /EHsc /RTC1 /MDd /GS /fp:precise /Zc:wchar_t /Zc:forScope /Yu"StdAfx.h" /Fp"Debug\AllDetector.pch" /Fo"Debug\\" /Fd"Debug\vc100.pdb" /Gd /TP /analyze- /errorReport:prompt C:\USERS\THINK\DESKTOP\ALLDETECTOR\ALLDETECTOR\FILEVIEW.CPP
^C:\USERS\THINK\DESKTOP\ALLDETECTOR\ALLDETECTOR\MAINFRM.CPP
/c /ZI /nologo /W3 /WX- /Od /Oy- /D WIN32 /D _WINDOWS /D _DEBUG /D _MBCS /D _AFXDLL /Gm /EHsc /RTC1 /MDd /GS /fp:precise /Zc:wchar_t /Zc:forScope /Yu"StdAfx.h" /Fp"Debug\AllDetector.pch" /Fo"Debug\\" /Fd"Debug\vc100.pdb" /Gd /TP /analyze- /errorReport:prompt C:\USERS\THINK\DESKTOP\ALLDETECTOR\ALLDETECTOR\MAINFRM.CPP
^C:\USERS\THINK\DESKTOP\ALLDETECTOR\ALLDETECTOR\OUTPUTWND.CPP
/c /ZI /nologo /W3 /WX- /Od /Oy- /D WIN32 /D _WINDOWS /D _DEBUG /D _MBCS /D _AFXDLL /Gm /EHsc /RTC1 /MDd /GS /fp:precise /Zc:wchar_t /Zc:forScope /Yu"StdAfx.h" /Fp"Debug\AllDetector.pch" /Fo"Debug\\" /Fd"Debug\vc100.pdb" /Gd /TP /analyze- /errorReport:prompt C:\USERS\THINK\DESKTOP\ALLDETECTOR\ALLDETECTOR\OUTPUTWND.CPP
^C:\USERS\THINK\DESKTOP\ALLDETECTOR\ALLDETECTOR\PROPERTIESWND.CPP
/c /ZI /nologo /W3 /WX- /Od /Oy- /D WIN32 /D _WINDOWS /D _DEBUG /D _MBCS /D _AFXDLL /Gm /EHsc /RTC1 /MDd /GS /fp:precise /Zc:wchar_t /Zc:forScope /Yu"StdAfx.h" /Fp"Debug\AllDetector.pch" /Fo"Debug\\" /Fd"Debug\vc100.pdb" /Gd /TP /analyze- /errorReport:prompt C:\USERS\THINK\DESKTOP\ALLDETECTOR\ALLDETECTOR\PROPERTIESWND.CPP
^C:\USERS\THINK\DESKTOP\ALLDETECTOR\ALLDETECTOR\VIEWTREE.CPP
/c /ZI /nologo /W3 /WX- /Od /Oy- /D WIN32 /D _WINDOWS /D _DEBUG /D _MBCS /D _AFXDLL /Gm /EHsc /RTC1 /MDd /GS /fp:precise /Zc:wchar_t /Zc:forScope /Yu"StdAfx.h" /Fp"Debug\AllDetector.pch" /Fo"Debug\\" /Fd"Debug\vc100.pdb" /Gd /TP /analyze- /errorReport:prompt C:\USERS\THINK\DESKTOP\ALLDETECTOR\ALLDETECTOR\VIEWTREE.CPP
