^C:\USERS\THINK\DESKTOP\ALLDETECTOR\ALLDETECTOR\STDAFX.CPP
C:\USERS\THINK\DESKTOP\ALLDETECTOR\ALLDETECTOR\DEBUG\ALLDETECTOR.PCH
C:\USERS\THINK\DESKTOP\ALLDETECTOR\ALLDETECTOR\DEBUG\STDAFX.OBJ
C:\USERS\THINK\DESKTOP\ALLDETECTOR\ALLDETECTOR\DEBUG\VC100.PDB
^C:\USERS\THINK\DESKTOP\ALLDETECTOR\ALLDETECTOR\ALLDETECTOR.CPP|C:\USERS\THINK\DESKTOP\ALLDETECTOR\ALLDETECTOR\ALLDETECTORDOC.CPP|C:\USERS\THINK\DESKTOP\ALLDETECTOR\ALLDETECTOR\ALLDETECTORVIEW.CPP|C:\USERS\THINK\DESKTOP\ALLDETECTOR\ALLDETECTOR\CHILDFRM.CPP|C:\USERS\THINK\DESKTOP\ALLDETECTOR\ALLDETECTOR\CLASSVIEW.CPP|C:\USERS\THINK\DESKTOP\ALLDETECTOR\ALLDETECTOR\FILEVIEW.CPP|C:\USERS\THINK\DESKTOP\ALLDETECTOR\ALLDETECTOR\MAINFRM.CPP|C:\USERS\THINK\DESKTOP\ALLDETECTOR\ALLDETECTOR\OUTPUTWND.CPP|C:\USERS\THINK\DESKTOP\ALLDETECTOR\ALLDETECTOR\PROPERTIESWND.CPP|C:\USERS\THINK\DESKTOP\ALLDETECTOR\ALLDETECTOR\VIEWTREE.CPP
C:\USERS\THINK\DESKTOP\ALLDETECTOR\ALLDETECTOR\DEBUG\ALLDETECTOR.OBJ
C:\USERS\THINK\DESKTOP\ALLDETECTOR\ALLDETECTOR\DEBUG\ALLDETECTORDOC.OBJ
C:\USERS\THINK\DESKTOP\ALLDETECTOR\ALLDETECTOR\DEBUG\ALLDETECTORVIEW.OBJ
C:\USERS\THINK\DESKTOP\ALLDETECTOR\ALLDETECTOR\DEBUG\CHILDFRM.OBJ
C:\USERS\THINK\DESKTOP\ALLDETECTOR\ALLDETECTOR\DEBUG\CLASSVIEW.OBJ
C:\USERS\THINK\DESKTOP\ALLDETECTOR\ALLDETECTOR\DEBUG\FILEVIEW.OBJ
C:\USERS\THINK\DESKTOP\ALLDETECTOR\ALLDETECTOR\DEBUG\MAINFRM.OBJ
C:\USERS\THINK\DESKTOP\ALLDETECTOR\ALLDETECTOR\DEBUG\OUTPUTWND.OBJ
C:\USERS\THINK\DESKTOP\ALLDETECTOR\ALLDETECTOR\DEBUG\PROPERTIESWND.OBJ
C:\USERS\THINK\DESKTOP\ALLDETECTOR\ALLDETECTOR\DEBUG\VIEWTREE.OBJ
^C:\USERS\THINK\DESKTOP\ALLDETECTOR\ALLDETECTOR\ALLDETECTOR.CPP
C:\USERS\THINK\DESKTOP\ALLDETECTOR\ALLDETECTOR\DEBUG\VC100.PDB
^C:\USERS\THINK\DESKTOP\ALLDETECTOR\ALLDETECTOR\ALLDETECTORDOC.CPP
C:\USERS\THINK\DESKTOP\ALLDETECTOR\ALLDETECTOR\DEBUG\VC100.PDB
^C:\USERS\THINK\DESKTOP\ALLDETECTOR\ALLDETECTOR\ALLDETECTORVIEW.CPP
C:\USERS\THINK\DESKTOP\ALLDETECTOR\ALLDETECTOR\DEBUG\VC100.PDB
^C:\USERS\THINK\DESKTOP\ALLDETECTOR\ALLDETECTOR\CHILDFRM.CPP
C:\USERS\THINK\DESKTOP\ALLDETECTOR\ALLDETECTOR\DEBUG\VC100.PDB
^C:\USERS\THINK\DESKTOP\ALLDETECTOR\ALLDETECTOR\CLASSVIEW.CPP
C:\USERS\THINK\DESKTOP\ALLDETECTOR\ALLDETECTOR\DEBUG\VC100.PDB
^C:\USERS\THINK\DESKTOP\ALLDETECTOR\ALLDETECTOR\FILEVIEW.CPP
C:\USERS\THINK\DESKTOP\ALLDETECTOR\ALLDETECTOR\DEBUG\VC100.PDB
^C:\USERS\THINK\DESKTOP\ALLDETECTOR\ALLDETECTOR\MAINFRM.CPP
C:\USERS\THINK\DESKTOP\ALLDETECTOR\ALLDETECTOR\DEBUG\VC100.PDB
^C:\USERS\THINK\DESKTOP\ALLDETECTOR\ALLDETECTOR\OUTPUTWND.CPP
C:\USERS\THINK\DESKTOP\ALLDETECTOR\ALLDETECTOR\DEBUG\VC100.PDB
^C:\USERS\THINK\DESKTOP\ALLDETECTOR\ALLDETECTOR\PROPERTIESWND.CPP
C:\USERS\THINK\DESKTOP\ALLDETECTOR\ALLDETECTOR\DEBUG\VC100.PDB
^C:\USERS\THINK\DESKTOP\ALLDETECTOR\ALLDETECTOR\VIEWTREE.CPP
C:\USERS\THINK\DESKTOP\ALLDETECTOR\ALLDETECTOR\DEBUG\VC100.PDB
